<svg version="1.1" xmlns="http://www.w3.org/2000/svg" xmlns:xlink="http://www.w3.org/1999/xlink" width="18" height="16" viewBox="0 0 18 16">
<path id="Shape-1" d="M1.012,6.489 C1.012,6.489 0.984,6.495 0.984,6.495 L13.029,6.495 C13.029,6.495 9.242,2.433 9.242,2.433 C9.057,2.235 8.955,1.967 8.955,1.685 C8.955,1.403 9.057,1.136 9.242,0.937 C9.242,0.937 9.831,0.307 9.831,0.307 C10.017,0.109 10.264,-0.001 10.527,-0.001 C10.790,-0.001 11.037,0.108 11.223,0.306 C11.223,0.306 17.713,7.252 17.713,7.252 C17.899,7.451 18.001,7.715 18.000,7.998 C18.001,8.281 17.899,8.546 17.713,8.745 C17.713,8.745 11.223,15.691 11.223,15.691 C11.037,15.889 10.790,15.999 10.527,15.999 C10.264,15.999 10.017,15.889 9.831,15.691 C9.831,15.691 9.242,15.061 9.242,15.061 C9.057,14.863 8.955,14.598 8.955,14.317 C8.955,14.035 9.057,13.784 9.242,13.586 C9.242,13.586 13.072,9.503 13.072,9.503 C13.072,9.503 0.998,9.503 0.998,9.503 C0.456,9.503 -0.000,9.002 -0.000,8.422 C-0.000,8.422 -0.000,7.529 -0.000,7.529 C-0.000,6.949 0.469,6.489 1.012,6.489 z" fill="#CBCBCB" />
</svg>
