<svg version="1.1" xmlns="http://www.w3.org/2000/svg" xmlns:xlink="http://www.w3.org/1999/xlink" width="32" height="32" viewBox="0 0 32 32">
<path id="Фигура-7" d="M31.998,16.063 C31.998,17.826 28.798,19.255 28.798,19.255 C28.798,19.255 3.681,31.783 3.681,31.783 C2.884,32.099 1.989,32.013 1.265,31.547 C0.541,31.082 0.073,30.294 0.001,29.420 C0.001,29.420 0.001,2.652 0.001,2.652 C-0.059,1.711 0.401,0.816 1.191,0.334 C1.980,-0.146 2.966,-0.132 3.741,0.374 C3.741,0.374 28.798,12.872 28.798,12.872 C28.798,12.872 31.998,14.299 31.998,16.063 z" fill="#FFFFFF" />
</svg>
